dsdlab-main/210905294_B/Week2/ques2/struct_tb.vcd
$date
	Thu Sep  1 15:37:12 2022
$end
$version
	Icarus Verilog
$end
$timescale
	1ns
$end
$scope module struct_tb $end
$var wire 1 ! f $end
$var reg 1 " a $end
$var reg 1 # b $end
$var reg 1 $ c $end
$var reg 1 % d $end
$scope module uut $end
$var wire 1 " a $end
$var wire 1 # b $end
$var wire 1 $ c $end
$var wire 1 % d $end
$var wire 1 ! f $end
$var wire 1 & t1 $end
$var wire 1 ' t2 $end
$var wire 1 ( t3 $end
$var wire 1 ) t4 $end
$upscope $end
$upscope $end
$enddefinitions $end
#0
$dumpvars
1)
1(
1'
1&
0%
0$
0#
0"
1!
$end
#10
0!
0&
1#
#20
0(
1&
1$
0#
#30
1!
1(
1%
0$
#40
0%
1"
#50
0!
0&
1#
#60
0)
1&
1$
0#
#70
0'
1)
1%
0$
#80
1!
1'
1$
0"
#90
0$
1#
#100
0!
0(
0%
1$
#110
1!
1(
1"
#120
0!
0'
1%
0$
#130
0)
1'
1$
0#
#140
1!
1)
1#
0"
#150
1"
