dsdlab-main/210905294_B/Week2/ques1/struct_tb.vcd
$date
	Thu Sep  1 15:09:50 2022
$end
$version
	Icarus Verilog
$end
$timescale
	1ns
$end
$scope module struct_tb $end
$var wire 1 ! f $end
$var reg 1 " a $end
$var reg 1 # b $end
$var reg 1 $ c $end
$var reg 1 % d $end
$scope module uut $end
$var wire 1 " a $end
$var wire 1 # b $end
$var wire 1 $ c $end
$var wire 1 % d $end
$var wire 1 ! f $end
$var wire 1 & t1 $end
$var wire 1 ' t2 $end
$var wire 1 ( t3 $end
$var wire 1 ) t4 $end
$upscope $end
$upscope $end
$enddefinitions $end
#0
$dumpvars
0)
0(
0'
0&
0%
0$
0#
0"
0!
$end
#10
1!
1(
1#
#20
1&
0(
1$
0#
#30
0!
0&
1%
0$
#40
0%
1"
#50
1#
#60
1!
1&
1$
0#
#70
0!
0&
1%
0$
#80
1!
1&
1'
1$
0"
#90
1)
0&
0'
1(
0$
1#
#100
0)
0%
1$
#110
0!
0(
1"
#120
1!
1)
1%
0$
#130
1&
1'
0)
1$
0#
#140
0&
1(
1#
0"
#150
0(
1"
