dsdlab-main/210905294_B/Week7/q1/q1b_tb.vcd
$date
	Thu Oct 20 09:10:41 2022
$end
$version
	Icarus Verilog
$end
$timescale
	1ns
$end
$scope module q1b_tb $end
$var wire 1 ! f $end
$var reg 1 " a $end
$var reg 1 # b $end
$var reg 1 $ c $end
$var reg 1 % d $end
$scope module q $end
$var wire 1 " a $end
$var wire 1 # b $end
$var wire 1 $ c $end
$var wire 1 % d $end
$var wire 2 & h [1:0] $end
$var wire 1 ! f $end
$scope module stage0 $end
$var wire 1 $ c $end
$var wire 1 % d $end
$var wire 2 ' s [1:0] $end
$var reg 1 ! f $end
$upscope $end
$upscope $end
$upscope $end
$enddefinitions $end
#0
$dumpvars
b0 '
b0 &
0%
0$
0#
0"
1!
$end
#20
0!
1%
#40
1!
0%
1$
#60
1%
#80
0!
0%
0$
b1 &
b1 '
1#
#100
1!
1%
#120
0!
0%
1$
#140
1!
1%
#160
0!
0%
0$
0#
b10 &
b10 '
1"
#180
1%
#200
0%
1$
#220
1%
#240
0%
0$
b11 &
b11 '
1#
#260
1%
#280
0%
1$
#300
1%
